{
	"subject": "{% filter trim|escape('js')|replace({'\x': '\u00'}) %}{% block jsonsubject %}{% endblock %}{% endfilter %}",
	"body": "{% filter trim|escape('js')|replace({'\x': '\u00'}) %}{% block jsonbody %}{% endblock %}{% endfilter %}"
}
